{"photos":{"page":1,"pages":11624,"perpage":50,"total":"581182","photo":[{"id":"44016134174","owner":"144111766@N02","secret":"162521a62f","server":"1887","farm":2,"title":"Whats Fotos","ispublic":1,"isfriend":0,"isfamily":0},{"id":"42924615110","owner":"159759118@N03","secret":"710f39c33c","server":"1870","farm":2,"title":"The best DIY Beauty Tips : DIY Rosewater Lotion Bar Recipe","ispublic":1,"isfriend":0,"isfamily":0},{"id":"30863630948","owner":"141283761@N08","secret":"82bbdf98be","server":"1842","farm":2,"title":"1537165888589-91153bb2-85a5-4126-a97d-69c873d6d005_","ispublic":1,"isfriend":0,"isfamily":0},{"id":"29797433467","owner":"144429258@N06","secret":"38b2107ce5","server":"1894","farm":2,"title":"2018-09-17_09.01.14.UTC.jpg","ispublic":1,"isfriend":0,"isfamily":0},{"id":"44016084294","owner":"141118441@N03","secret":"bae0313df2","server":"1883","farm":2,"title":"IMG_20180803_193535","ispublic":1,"isfriend":0,"isfamily":0},{"id":"44016081664","owner":"162973158@N03","secret":"b7b0eb9904","server":"1854","farm":2,"title":"\u015eerbet\u00e7i Otu","ispublic":1,"isfriend":0,"isfamily":0},{"id":"42924575210","owner":"144429258@N06","secret":"855d59dc28","server":"1853","farm":2,"title":"2018-09-17_09.00.15.UTC.jpg","ispublic":1,"isfriend":0,"isfamily":0},{"id":"44016074554","owner":"136337354@N06","secret":"5c4f4fe113","server":"1842","farm":2,"title":"","ispublic":1,"isfriend":0,"isfamily":0},{"id":"42924568660","owner":"136337354@N06","secret":"5c99b6e18e","server":"1868","farm":2,"title":"","ispublic":1,"isfriend":0,"isfamily":0},{"id":"44016046154","owner":"159430402@N07","secret":"48778355fa","server":"1879","farm":2,"title":"The lollipop sundae","ispublic":1,"isfriend":0,"isfamily":0},{"id":"44684686092","owner":"154822939@N02","secret":"69d87e2140","server":"1849","farm":2,"title":"Print","ispublic":1,"isfriend":0,"isfamily":0},{"id":"30863643678","owner":"159439141@N04","secret":"3b58ba6c43","server":"1898","farm":2,"title":"\u4eac\u90fd\u7947\u5712 \/ Kyoto Gion","ispublic":1,"isfriend":0,"isfamily":0},{"id":"42924623350","owner":"144111766@N02","secret":"a2e0d21476","server":"1861","farm":2,"title":"Whats Fotos","ispublic":1,"isfriend":0,"isfamily":0},{"id":"44684779092","owner":"144111766@N02","secret":"81e901cb6e","server":"1887","farm":2,"title":"Whats Fotos","ispublic":1,"isfriend":0,"isfamily":0},{"id":"44684770152","owner":"117423074@N07","secret":"f22da12268","server":"1864","farm":2,"title":"SDQ_8107","ispublic":1,"isfriend":0,"isfamily":0},{"id":"44684762082","owner":"16364897@N02","secret":"f26582a0a9","server":"1857","farm":2,"title":"DSCF3726","ispublic":1,"isfriend":0,"isfamily":0},{"id":"44016116844","owner":"136314918@N02","secret":"0fa7e31d15","server":"1867","farm":2,"title":"Sagger-5.jpg","ispublic":1,"isfriend":0,"isfamily":0},{"id":"44684760622","owner":"16364897@N02","secret":"c06c21767b","server":"1891","farm":2,"title":"DSCF3685","ispublic":1,"isfriend":0,"isfamily":0},{"id":"44016112254","owner":"16364897@N02","secret":"bf2e0807e4","server":"1885","farm":2,"title":"DSCF3677","ispublic":1,"isfriend":0,"isfamily":0},{"id":"44684751632","owner":"51485509@N00","secret":"dc271b7dfa","server":"1867","farm":2,"title":"DSC_5673.jpg","ispublic":1,"isfriend":0,"isfamily":0},{"id":"30863616128","owner":"51485509@N00","secret":"7cc1acf028","server":"1844","farm":2,"title":"DSC_5670.jpg","ispublic":1,"isfriend":0,"isfamily":0},{"id":"30863606428","owner":"51485509@N00","secret":"7c973bb6a8","server":"1895","farm":2,"title":"DSC_5667.jpg","ispublic":1,"isfriend":0,"isfamily":0},{"id":"44734061441","owner":"155827325@N05","secret":"d4b4af0c0f","server":"1862","farm":2,"title":"20180825-DSC_0001","ispublic":1,"isfriend":0,"isfamily":0},{"id":"42924582710","owner":"155827325@N05","secret":"b148df01d3","server":"1868","farm":2,"title":"20180825-DSC_0004","ispublic":1,"isfriend":0,"isfamily":0},{"id":"30863603088","owner":"76070805@N04","secret":"3ceb26d424","server":"1861","farm":2,"title":"Thornscrub hook-nosed snake","ispublic":1,"isfriend":0,"isfamily":0},{"id":"44016084494","owner":"155827325@N05","secret":"18fa388fe3","server":"1871","farm":2,"title":"20180825-DSC_0007","ispublic":1,"isfriend":0,"isfamily":0},{"id":"29797423667","owner":"41854595@N07","secret":"2b361f8e1b","server":"1878","farm":2,"title":"17511","ispublic":1,"isfriend":0,"isfamily":0},{"id":"43825589405","owner":"155827325@N05","secret":"154abde570","server":"1893","farm":2,"title":"20180825-DSC_0012","ispublic":1,"isfriend":0,"isfamily":0},{"id":"44734056781","owner":"143112901@N08","secret":"259afcb81a","server":"1869","farm":2,"title":"Khoai s\u1ecd: M\u00f3n \u0103n b\u1ed5 d\u01b0\u1ee1ng ch\u1ed1ng suy nh\u01b0\u1ee3c gi\u1ea3m m\u1ec7t m\u1ecfi","ispublic":1,"isfriend":0,"isfamily":0},{"id":"44016080564","owner":"51485509@N00","secret":"0c74e00058","server":"1871","farm":2,"title":"DSC_5665.jpg","ispublic":1,"isfriend":0,"isfamily":0},{"id":"42924572760","owner":"155827325@N05","secret":"0aedd22550","server":"1896","farm":2,"title":"20180825-DSC_0017","ispublic":1,"isfriend":0,"isfamily":0},{"id":"43825581215","owner":"155827325@N05","secret":"78bc680b8b","server":"1852","farm":2,"title":"20180825-DSC_0018","ispublic":1,"isfriend":0,"isfamily":0},{"id":"44016074054","owner":"59500888@N08","secret":"32cb1f7269","server":"1863","farm":2,"title":"FASSUNG V","ispublic":1,"isfriend":0,"isfamily":0},{"id":"29797410557","owner":"155827325@N05","secret":"965eff4a86","server":"1872","farm":2,"title":"20180825-DSC_0019","ispublic":1,"isfriend":0,"isfamily":0},{"id":"44734050591","owner":"160509075@N03","secret":"e524acbc21","server":"1898","farm":2,"title":"DSCN3662","ispublic":1,"isfriend":0,"isfamily":0},{"id":"44734049661","owner":"160509075@N03","secret":"ba24c2bc82","server":"1871","farm":2,"title":"DSCN3674","ispublic":1,"isfriend":0,"isfamily":0},{"id":"29797404897","owner":"141283761@N08","secret":"e352299ae1","server":"1881","farm":2,"title":"1537131575407-16a7cccd-ef53-4f59-b6af-107d54293304_","ispublic":1,"isfriend":0,"isfamily":0},{"id":"30863581698","owner":"28987775@N04","secret":"53db3acd71","server":"1888","farm":2,"title":"K3_11380-2_r","ispublic":1,"isfriend":0,"isfamily":0},{"id":"44684704802","owner":"64046608@N02","secret":"ae3a876f14","server":"1868","farm":2,"title":"ganz sch\u00f6n pieksig","ispublic":1,"isfriend":0,"isfamily":0},{"id":"44734039931","owner":"141283761@N08","secret":"5034243c1d","server":"1889","farm":2,"title":"1537130626384-1020d900-b520-4fc3-9386-5068b0ac5c04_","ispublic":1,"isfriend":0,"isfamily":0},{"id":"43825547065","owner":"64046608@N02","secret":"0eb2d9f91f","server":"1878","farm":2,"title":"leer","ispublic":1,"isfriend":0,"isfamily":0},{"id":"42924535590","owner":"164644943@N04","secret":"b939258773","server":"1894","farm":2,"title":"bo-ban-ghe-lam-bang-nu-xa-xi-ngan-tuoi","ispublic":1,"isfriend":0,"isfamily":0},{"id":"44016049604","owner":"156089604@N05","secret":"4f3f41c484","server":"1862","farm":2,"title":"IMG_0066","ispublic":1,"isfriend":0,"isfamily":0},{"id":"44734024041","owner":"76696238@N02","secret":"a6e67405a7","server":"1865","farm":2,"title":"Sansevieria gracilis (Samenkorn) \u00a9 Peter A. Mansfeld, level6.de (2016)","ispublic":1,"isfriend":0,"isfamily":0},{"id":"43825531435","owner":"38257616@N08","secret":"919166b4d0","server":"1881","farm":2,"title":"IMG_8392","ispublic":1,"isfriend":0,"isfamily":0},{"id":"44016035544","owner":"149328524@N08","secret":"7e4e506078","server":"1864","farm":2,"title":"Ganesh Visarjan Festival 2018","ispublic":1,"isfriend":0,"isfamily":0},{"id":"43825525535","owner":"38257616@N08","secret":"c3052f0b98","server":"1846","farm":2,"title":"IMG_8471","ispublic":1,"isfriend":0,"isfamily":0},{"id":"29797375807","owner":"38257616@N08","secret":"f5feb1ae57","server":"1852","farm":2,"title":"IMG_8486","ispublic":1,"isfriend":0,"isfamily":0},{"id":"44016032264","owner":"38257616@N08","secret":"9ec3d06968","server":"1886","farm":2,"title":"IMG_8487","ispublic":1,"isfriend":0,"isfamily":0},{"id":"43825519615","owner":"155827325@N05","secret":"36967ee6a3","server":"1894","farm":2,"title":"20180825-DSC_0075","ispublic":1,"isfriend":0,"isfamily":0}]},"stat":"ok"}
